Census APIs in R
…
Get the data

durh_micro <- get_pums(
  variables=c("NP"),
  state="37",
  puma=c("01301", "01302"),
  year=year_select,
  survey="acs5",
  variables_filter = list(TYPEHUGQ=1, SPORDER = 1),
  rep_weights = "housing",
  return_vacant = TRUE)

durh_micro

# A tibble: 5,108 × 89
   SERIA…¹ SPORDER    NP PUMA  ST    TYPEH…² VACS   WGTP PWGTP WGTP1 WGTP2 WGTP3
   <chr>     <dbl> <dbl> <chr> <chr> <chr>   <chr> <dbl> <dbl> <dbl> <dbl> <dbl>
 1 201600…       1     3 01301 37    1       b        24    24     6    27    29
 2 201600…       1     1 01301 37    1       b        24    25    26     9    20
 3 201600…       1     1 01301 37    1       b         8     9     8     3     7
 4 201600…       1     7 01301 37    1       b        41    41    37    14    11
 5 201600…       1     1 01301 37    1       b        62    62    60    94    96
 6 201600…       1     2 01302 37    1       b        10    10     3    10    10
 7 201600…       1     1 01302 37    1       b        19    20    35    21     6
 8 201600…       1     4 01301 37    1       b        21    21    31    33    23
 9 201600…       1     1 01302 37    1       b        29    28     8    23    27
10 201600…       1     3 01301 37    1       b        11    11    12    17    10
# … with 5,098 more rows, 77 more variables: WGTP4 <dbl>, WGTP5 <dbl>,
#   WGTP6 <dbl>, WGTP7 <dbl>, WGTP8 <dbl>, WGTP9 <dbl>, WGTP10 <dbl>,
#   WGTP11 <dbl>, WGTP12 <dbl>, WGTP13 <dbl>, WGTP14 <dbl>, WGTP15 <dbl>,
#   WGTP16 <dbl>, WGTP17 <dbl>, WGTP18 <dbl>, WGTP19 <dbl>, WGTP20 <dbl>,
#   WGTP21 <dbl>, WGTP22 <dbl>, WGTP23 <dbl>, WGTP24 <dbl>, WGTP25 <dbl>,
#   WGTP26 <dbl>, WGTP27 <dbl>, WGTP28 <dbl>, WGTP29 <dbl>, WGTP30 <dbl>,
#   WGTP31 <dbl>, WGTP32 <dbl>, WGTP33 <dbl>, WGTP34 <dbl>, WGTP35 <dbl>, …
…
